<?xml version="1.0" encoding="utf-8"?>
<!DOCTYPE eagle SYSTEM "eagle.dtd">
<eagle version="6.4">
<drawing>
<settings>
<setting alwaysvectorfont="no"/>
<setting verticaltext="up"/>
</settings>
<grid distance="12.5" unitdist="mil" unit="mil" style="lines" multiple="1" display="no" altdistance="6.25" altunitdist="mil" altunit="mil"/>
<layers>
<layer number="1" name="Top" color="4" fill="1" visible="yes" active="yes"/>
<layer number="2" name="Route2" color="1" fill="3" visible="no" active="no"/>
<layer number="3" name="Route3" color="4" fill="3" visible="no" active="no"/>
<layer number="4" name="Route4" color="1" fill="4" visible="no" active="no"/>
<layer number="5" name="Route5" color="4" fill="4" visible="no" active="no"/>
<layer number="6" name="Route6" color="1" fill="8" visible="no" active="no"/>
<layer number="7" name="Route7" color="4" fill="8" visible="no" active="no"/>
<layer number="8" name="Route8" color="1" fill="2" visible="no" active="no"/>
<layer number="9" name="Route9" color="4" fill="2" visible="no" active="no"/>
<layer number="10" name="Route10" color="1" fill="7" visible="no" active="no"/>
<layer number="11" name="Route11" color="4" fill="7" visible="no" active="no"/>
<layer number="12" name="Route12" color="1" fill="5" visible="no" active="no"/>
<layer number="13" name="Route13" color="4" fill="5" visible="no" active="no"/>
<layer number="14" name="Route14" color="1" fill="6" visible="no" active="no"/>
<layer number="15" name="Route15" color="4" fill="6" visible="no" active="no"/>
<layer number="16" name="Bottom" color="1" fill="1" visible="yes" active="yes"/>
<layer number="17" name="Pads" color="2" fill="1" visible="yes" active="yes"/>
<layer number="18" name="Vias" color="2" fill="1" visible="yes" active="yes"/>
<layer number="19" name="Unrouted" color="6" fill="1" visible="yes" active="yes"/>
<layer number="20" name="Dimension" color="15" fill="1" visible="yes" active="yes"/>
<layer number="21" name="tPlace" color="7" fill="1" visible="yes" active="yes"/>
<layer number="22" name="bPlace" color="7" fill="1" visible="yes" active="yes"/>
<layer number="23" name="tOrigins" color="15" fill="1" visible="yes" active="yes"/>
<layer number="24" name="bOrigins" color="15" fill="1" visible="yes" active="yes"/>
<layer number="25" name="tNames" color="7" fill="1" visible="yes" active="yes"/>
<layer number="26" name="bNames" color="7" fill="1" visible="yes" active="yes"/>
<layer number="27" name="tValues" color="7" fill="1" visible="no" active="yes"/>
<layer number="28" name="bValues" color="7" fill="1" visible="yes" active="yes"/>
<layer number="29" name="tStop" color="7" fill="3" visible="no" active="yes"/>
<layer number="30" name="bStop" color="7" fill="6" visible="no" active="yes"/>
<layer number="31" name="tCream" color="7" fill="4" visible="no" active="yes"/>
<layer number="32" name="bCream" color="7" fill="5" visible="no" active="yes"/>
<layer number="33" name="tFinish" color="6" fill="3" visible="no" active="yes"/>
<layer number="34" name="bFinish" color="6" fill="6" visible="no" active="yes"/>
<layer number="35" name="tGlue" color="7" fill="4" visible="no" active="yes"/>
<layer number="36" name="bGlue" color="7" fill="5" visible="no" active="yes"/>
<layer number="37" name="tTest" color="7" fill="1" visible="no" active="yes"/>
<layer number="38" name="bTest" color="7" fill="1" visible="no" active="yes"/>
<layer number="39" name="tKeepout" color="4" fill="11" visible="yes" active="yes"/>
<layer number="40" name="bKeepout" color="1" fill="11" visible="yes" active="yes"/>
<layer number="41" name="tRestrict" color="4" fill="10" visible="yes" active="yes"/>
<layer number="42" name="bRestrict" color="1" fill="10" visible="yes" active="yes"/>
<layer number="43" name="vRestrict" color="2" fill="10" visible="yes" active="yes"/>
<layer number="44" name="Drills" color="7" fill="1" visible="no" active="yes"/>
<layer number="45" name="Holes" color="7" fill="1" visible="yes" active="yes"/>
<layer number="46" name="Milling" color="3" fill="1" visible="no" active="yes"/>
<layer number="47" name="Measures" color="7" fill="1" visible="no" active="yes"/>
<layer number="48" name="Document" color="7" fill="1" visible="yes" active="yes"/>
<layer number="49" name="Reference" color="7" fill="1" visible="yes" active="yes"/>
<layer number="51" name="tDocu" color="7" fill="1" visible="yes" active="yes"/>
<layer number="52" name="bDocu" color="7" fill="1" visible="yes" active="yes"/>
<layer number="91" name="Nets" color="2" fill="1" visible="no" active="no"/>
<layer number="92" name="Busses" color="1" fill="1" visible="no" active="no"/>
<layer number="93" name="Pins" color="2" fill="1" visible="no" active="no"/>
<layer number="94" name="Symbols" color="4" fill="1" visible="no" active="no"/>
<layer number="95" name="Names" color="7" fill="1" visible="no" active="no"/>
<layer number="96" name="Values" color="7" fill="1" visible="no" active="no"/>
<layer number="97" name="Info" color="7" fill="1" visible="no" active="no"/>
<layer number="98" name="Guide" color="6" fill="1" visible="no" active="no"/>
</layers>
<board>
<plain>
<wire x1="0" y1="0" x2="33.02" y2="0" width="0.254" layer="20"/>
<wire x1="33.02" y1="0" x2="33.02" y2="34.29" width="0.254" layer="20"/>
<wire x1="33.02" y1="34.29" x2="0" y2="34.29" width="0.254" layer="20"/>
<wire x1="0" y1="34.29" x2="0" y2="0" width="0.254" layer="20"/>
<text x="3.81" y="9.8425" size="1.016" layer="1" font="vector" rot="R90">www.fovs.de</text>
<text x="1.5875" y="18.7325" size="1.016" layer="1" font="vector" rot="R270">Ref-Sensor</text>
<text x="18.0975" y="1.27" size="1.016" layer="1" font="vector">Rev: 1</text>
</plain>
<libraries>
<library name="con-subd">
<packages>
<package name="F09HP">
<description>&lt;b&gt;SUB-D&lt;/b&gt;</description>
<wire x1="-7.62" y1="17.907" x2="-7.366" y2="17.907" width="0.1524" layer="21"/>
<wire x1="-8.128" y1="17.399" x2="-7.62" y2="17.907" width="0.1524" layer="21" curve="-90"/>
<wire x1="7.62" y1="17.907" x2="8.128" y2="17.399" width="0.1524" layer="21" curve="-90"/>
<wire x1="-7.747" y1="11.684" x2="7.747" y2="11.684" width="0.1524" layer="21"/>
<wire x1="-15.494" y1="7.62" x2="-10.414" y2="7.62" width="0.1524" layer="21"/>
<wire x1="-15.494" y1="7.62" x2="-15.494" y2="10.668" width="0.1524" layer="21"/>
<wire x1="-15.494" y1="7.62" x2="-15.494" y2="7.493" width="0.1524" layer="21"/>
<wire x1="-15.494" y1="10.668" x2="-15.494" y2="11.176" width="0.1524" layer="21"/>
<wire x1="-15.494" y1="11.176" x2="-15.494" y2="11.684" width="0.1524" layer="21"/>
<wire x1="15.494" y1="11.684" x2="15.494" y2="11.176" width="0.1524" layer="21"/>
<wire x1="15.494" y1="11.176" x2="15.494" y2="10.668" width="0.1524" layer="21"/>
<wire x1="15.494" y1="10.668" x2="15.494" y2="7.62" width="0.1524" layer="21"/>
<wire x1="15.494" y1="7.62" x2="15.494" y2="7.493" width="0.1524" layer="21"/>
<wire x1="-15.494" y1="11.176" x2="-12.954" y2="11.176" width="0.1524" layer="21"/>
<wire x1="-12.954" y1="11.176" x2="-10.414" y2="11.176" width="0.1524" layer="21"/>
<wire x1="-10.414" y1="10.668" x2="-10.414" y2="11.176" width="0.1524" layer="21"/>
<wire x1="-10.414" y1="10.668" x2="-10.287" y2="10.668" width="0.1524" layer="21"/>
<wire x1="-10.287" y1="8.255" x2="-9.652" y2="7.62" width="0.1524" layer="21" curve="90"/>
<wire x1="-10.414" y1="7.62" x2="-9.525" y2="7.62" width="0.1524" layer="21"/>
<wire x1="-9.525" y1="7.62" x2="-9.271" y2="7.62" width="0.1524" layer="21"/>
<wire x1="-10.287" y1="8.255" x2="-10.287" y2="10.668" width="0.1524" layer="21"/>
<wire x1="-9.271" y1="7.62" x2="-9.271" y2="6.858" width="0.1524" layer="21"/>
<wire x1="-9.271" y1="7.62" x2="9.271" y2="7.62" width="0.1524" layer="21"/>
<wire x1="-9.271" y1="6.858" x2="9.271" y2="6.858" width="0.1524" layer="21"/>
<wire x1="9.271" y1="7.62" x2="9.271" y2="6.858" width="0.1524" layer="21"/>
<wire x1="9.271" y1="7.62" x2="9.525" y2="7.62" width="0.1524" layer="21"/>
<wire x1="9.525" y1="7.62" x2="10.414" y2="7.62" width="0.1524" layer="21"/>
<wire x1="12.954" y1="11.176" x2="15.494" y2="11.176" width="0.1524" layer="21"/>
<wire x1="-10.414" y1="11.176" x2="10.414" y2="11.176" width="0.1524" layer="21"/>
<wire x1="10.414" y1="11.176" x2="12.954" y2="11.176" width="0.1524" layer="21"/>
<wire x1="10.414" y1="10.668" x2="10.414" y2="11.176" width="0.1524" layer="21"/>
<wire x1="10.287" y1="8.255" x2="10.287" y2="10.668" width="0.1524" layer="21"/>
<wire x1="10.287" y1="10.668" x2="10.414" y2="10.668" width="0.1524" layer="21"/>
<wire x1="9.652" y1="7.62" x2="10.287" y2="8.255" width="0.1524" layer="21" curve="90"/>
<wire x1="-14.859" y1="-3.175" x2="-15.494" y2="-2.54" width="0.1524" layer="21"/>
<wire x1="-15.494" y1="-2.54" x2="-15.494" y2="7.493" width="0.1524" layer="21"/>
<wire x1="-10.033" y1="-3.175" x2="-14.859" y2="-3.175" width="0.1524" layer="21"/>
<wire x1="-10.033" y1="-3.175" x2="-9.525" y2="-2.667" width="0.1524" layer="21"/>
<wire x1="-9.525" y1="-2.667" x2="-9.525" y2="7.62" width="0.1524" layer="21"/>
<wire x1="9.525" y1="-2.667" x2="9.525" y2="7.62" width="0.1524" layer="21"/>
<wire x1="9.525" y1="-2.667" x2="10.033" y2="-3.175" width="0.1524" layer="21"/>
<wire x1="10.033" y1="-3.175" x2="14.986" y2="-3.175" width="0.1524" layer="21"/>
<wire x1="14.986" y1="-3.175" x2="15.494" y2="-2.667" width="0.1524" layer="21"/>
<wire x1="15.494" y1="-2.667" x2="15.494" y2="7.493" width="0.1524" layer="21"/>
<wire x1="0" y1="-1.143" x2="0" y2="-0.127" width="0.8128" layer="51"/>
<wire x1="-2.7432" y1="-1.143" x2="-2.7432" y2="-0.127" width="0.8128" layer="51"/>
<wire x1="-5.4864" y1="-1.143" x2="-5.4864" y2="-0.127" width="0.8128" layer="51"/>
<wire x1="-4.1148" y1="1.397" x2="-4.1148" y2="2.413" width="0.8128" layer="51"/>
<wire x1="-1.3716" y1="1.397" x2="-1.3716" y2="2.413" width="0.8128" layer="51"/>
<wire x1="1.3462" y1="1.397" x2="1.3462" y2="2.413" width="0.8128" layer="51"/>
<wire x1="2.7432" y1="-1.143" x2="2.7432" y2="-0.127" width="0.8128" layer="51"/>
<wire x1="4.1148" y1="1.397" x2="4.1148" y2="2.413" width="0.8128" layer="51"/>
<wire x1="5.4864" y1="-1.143" x2="5.4864" y2="-0.127" width="0.8128" layer="51"/>
<wire x1="10.414" y1="7.62" x2="15.494" y2="7.62" width="0.1524" layer="21"/>
<wire x1="-15.494" y1="11.684" x2="-7.747" y2="11.684" width="0.1524" layer="21"/>
<wire x1="-8.128" y1="12.319" x2="-8.128" y2="17.399" width="0.1524" layer="21"/>
<wire x1="-8.763" y1="11.684" x2="-8.128" y2="12.319" width="0.1524" layer="21" curve="90"/>
<wire x1="7.747" y1="11.684" x2="15.494" y2="11.684" width="0.1524" layer="21"/>
<wire x1="8.128" y1="12.319" x2="8.128" y2="17.399" width="0.1524" layer="21"/>
<wire x1="8.128" y1="12.319" x2="8.763" y2="11.684" width="0.1524" layer="21" curve="90"/>
<wire x1="-7.366" y1="17.907" x2="7.366" y2="17.907" width="0.1524" layer="21"/>
<wire x1="7.366" y1="17.907" x2="7.62" y2="17.907" width="0.1524" layer="21"/>
<circle x="-12.5222" y="0" radius="1.651" width="0.1524" layer="21"/>
<circle x="12.5222" y="0" radius="1.651" width="0.1524" layer="21"/>
<pad name="1" x="-5.4864" y="-1.27" drill="1.016" shape="octagon"/>
<pad name="2" x="-2.7432" y="-1.27" drill="1.016" shape="octagon"/>
<pad name="3" x="0" y="-1.27" drill="1.016" shape="octagon"/>
<pad name="4" x="2.7432" y="-1.27" drill="1.016" shape="octagon"/>
<pad name="5" x="5.4864" y="-1.27" drill="1.016" shape="octagon"/>
<pad name="6" x="-4.1148" y="1.27" drill="1.016" shape="octagon"/>
<pad name="7" x="-1.3716" y="1.27" drill="1.016" shape="octagon"/>
<pad name="8" x="1.3716" y="1.27" drill="1.016" shape="octagon"/>
<pad name="9" x="4.1148" y="1.27" drill="1.016" shape="octagon"/>
<pad name="G1" x="-12.5222" y="0" drill="3.302" diameter="5.08"/>
<pad name="G2" x="12.5222" y="0" drill="3.302" diameter="5.08"/>
<text x="-15.24" y="-6.35" size="1.778" layer="25" ratio="10">&gt;NAME</text>
<text x="-5.08" y="13.97" size="1.778" layer="27" ratio="10">&gt;VALUE</text>
<text x="-7.62" y="-1.905" size="1.27" layer="21" ratio="10">1</text>
<text x="6.985" y="-1.905" size="1.27" layer="21" ratio="10">5</text>
<text x="6.985" y="0.635" size="1.27" layer="21" ratio="10">9</text>
<text x="-7.62" y="0.635" size="1.27" layer="21" ratio="10">6</text>
<text x="14.986" y="2.54" size="1.27" layer="21" ratio="10" rot="R90">2,54</text>
<text x="-7.62" y="8.509" size="1.27" layer="21" ratio="10">F09</text>
<rectangle x1="-9.271" y1="6.858" x2="9.271" y2="7.62" layer="21"/>
<rectangle x1="-15.494" y1="11.176" x2="15.494" y2="11.684" layer="21"/>
<rectangle x1="-5.8928" y1="-0.381" x2="-5.08" y2="6.858" layer="21"/>
<rectangle x1="-4.5212" y1="2.159" x2="-3.7084" y2="6.858" layer="21"/>
<rectangle x1="-3.1496" y1="-0.381" x2="-2.3368" y2="6.858" layer="21"/>
<rectangle x1="-1.778" y1="2.159" x2="-0.9652" y2="6.858" layer="21"/>
<rectangle x1="-0.4318" y1="-0.381" x2="0.381" y2="6.858" layer="21"/>
<rectangle x1="0.9398" y1="2.159" x2="1.7526" y2="6.858" layer="21"/>
<rectangle x1="2.3368" y1="-0.381" x2="3.1496" y2="6.858" layer="21"/>
<rectangle x1="3.7084" y1="2.159" x2="4.5212" y2="6.858" layer="21"/>
<rectangle x1="5.08" y1="-0.381" x2="5.8928" y2="6.858" layer="21"/>
</package>
</packages>
</library>
<library name="adxl312">
<packages>
<package name="CP_32_17">
<wire x1="2.4892" y1="2.2352" x2="2.4892" y2="2.4892" width="0.1524" layer="21"/>
<wire x1="2.2352" y1="-2.4892" x2="2.4892" y2="-2.4892" width="0.1524" layer="21"/>
<wire x1="-2.2352" y1="2.4892" x2="-2.4892" y2="2.4892" width="0.1524" layer="21"/>
<wire x1="-2.4892" y1="-2.4892" x2="-2.2352" y2="-2.4892" width="0.1524" layer="21"/>
<wire x1="2.4892" y1="-2.4892" x2="2.4892" y2="-2.2352" width="0.1524" layer="21"/>
<wire x1="2.4892" y1="2.4892" x2="2.2352" y2="2.4892" width="0.1524" layer="21"/>
<wire x1="-2.4892" y1="2.4892" x2="-2.4892" y2="2.2352" width="0.1524" layer="21"/>
<wire x1="-2.4892" y1="-2.2352" x2="-2.4892" y2="-2.4892" width="0.1524" layer="21"/>
<wire x1="-1.4478" y1="-3.048" x2="-1.4478" y2="-3.302" width="0.1524" layer="21"/>
<wire x1="-1.4478" y1="-3.302" x2="-1.0668" y2="-3.302" width="0.1524" layer="21"/>
<wire x1="-1.0668" y1="-3.302" x2="-1.0668" y2="-3.048" width="0.1524" layer="21"/>
<wire x1="3.302" y1="-0.0508" x2="3.302" y2="-0.4318" width="0.1524" layer="21"/>
<wire x1="3.302" y1="-0.4318" x2="3.048" y2="-0.4318" width="0.1524" layer="21"/>
<wire x1="3.048" y1="-0.4318" x2="3.048" y2="-0.0508" width="0.1524" layer="21"/>
<wire x1="-0.9398" y1="3.048" x2="-0.9398" y2="3.302" width="0.1524" layer="21"/>
<wire x1="-0.9398" y1="3.302" x2="-0.5588" y2="3.302" width="0.1524" layer="21"/>
<wire x1="-0.5588" y1="3.302" x2="-0.5588" y2="3.048" width="0.1524" layer="21"/>
<wire x1="-2.4892" y1="1.2192" x2="-1.2192" y2="2.4892" width="0.1524" layer="51"/>
<wire x1="1.905" y1="2.4892" x2="1.6002" y2="2.4892" width="0.1524" layer="51"/>
<wire x1="1.397" y1="2.4892" x2="1.0922" y2="2.4892" width="0.1524" layer="51"/>
<wire x1="0.889" y1="2.4892" x2="0.6096" y2="2.4892" width="0.1524" layer="51"/>
<wire x1="0.4064" y1="2.4892" x2="0.1016" y2="2.4892" width="0.1524" layer="51"/>
<wire x1="-0.1016" y1="2.4892" x2="-0.4064" y2="2.4892" width="0.1524" layer="51"/>
<wire x1="-0.6096" y1="2.4892" x2="-0.889" y2="2.4892" width="0.1524" layer="51"/>
<wire x1="-1.0922" y1="2.4892" x2="-1.397" y2="2.4892" width="0.1524" layer="51"/>
<wire x1="-1.6002" y1="2.4892" x2="-1.905" y2="2.4892" width="0.1524" layer="51"/>
<wire x1="-2.4892" y1="1.905" x2="-2.4892" y2="1.6002" width="0.1524" layer="51"/>
<wire x1="-2.4892" y1="1.397" x2="-2.4892" y2="1.0922" width="0.1524" layer="51"/>
<wire x1="-2.4892" y1="0.889" x2="-2.4892" y2="0.6096" width="0.1524" layer="51"/>
<wire x1="-2.4892" y1="0.4064" x2="-2.4892" y2="0.1016" width="0.1524" layer="51"/>
<wire x1="-2.4892" y1="-0.1016" x2="-2.4892" y2="-0.4064" width="0.1524" layer="51"/>
<wire x1="-2.4892" y1="-0.6096" x2="-2.4892" y2="-0.889" width="0.1524" layer="51"/>
<wire x1="-2.4892" y1="-1.0922" x2="-2.4892" y2="-1.397" width="0.1524" layer="51"/>
<wire x1="-2.4892" y1="-1.6002" x2="-2.4892" y2="-1.905" width="0.1524" layer="51"/>
<wire x1="-1.905" y1="-2.4892" x2="-1.6002" y2="-2.4892" width="0.1524" layer="51"/>
<wire x1="-1.397" y1="-2.4892" x2="-1.0922" y2="-2.4892" width="0.1524" layer="51"/>
<wire x1="-0.889" y1="-2.4892" x2="-0.6096" y2="-2.4892" width="0.1524" layer="51"/>
<wire x1="-0.4064" y1="-2.4892" x2="-0.1016" y2="-2.4892" width="0.1524" layer="51"/>
<wire x1="0.1016" y1="-2.4892" x2="0.4064" y2="-2.4892" width="0.1524" layer="51"/>
<wire x1="0.6096" y1="-2.4892" x2="0.889" y2="-2.4892" width="0.1524" layer="51"/>
<wire x1="1.0922" y1="-2.4892" x2="1.397" y2="-2.4892" width="0.1524" layer="51"/>
<wire x1="1.6002" y1="-2.4892" x2="1.905" y2="-2.4892" width="0.1524" layer="51"/>
<wire x1="2.4892" y1="-1.905" x2="2.4892" y2="-1.6002" width="0.1524" layer="51"/>
<wire x1="2.4892" y1="-1.397" x2="2.4892" y2="-1.0922" width="0.1524" layer="51"/>
<wire x1="2.4892" y1="-0.889" x2="2.4892" y2="-0.6096" width="0.1524" layer="51"/>
<wire x1="2.4892" y1="-0.4064" x2="2.4892" y2="-0.1016" width="0.1524" layer="51"/>
<wire x1="2.4892" y1="0.1016" x2="2.4892" y2="0.4064" width="0.1524" layer="51"/>
<wire x1="2.4892" y1="0.6096" x2="2.4892" y2="0.889" width="0.1524" layer="51"/>
<wire x1="2.4892" y1="1.0922" x2="2.4892" y2="1.397" width="0.1524" layer="51"/>
<wire x1="2.4892" y1="1.6002" x2="2.4892" y2="1.905" width="0.1524" layer="51"/>
<wire x1="-2.4892" y1="-2.4892" x2="2.4892" y2="-2.4892" width="0.1524" layer="51"/>
<wire x1="2.4892" y1="-2.4892" x2="2.4892" y2="2.4892" width="0.1524" layer="51"/>
<wire x1="2.4892" y1="2.4892" x2="-2.4892" y2="2.4892" width="0.1524" layer="51"/>
<wire x1="-2.4892" y1="2.4892" x2="-2.4892" y2="-2.4892" width="0.1524" layer="51"/>
<smd name="1" x="-2.4384" y="1.7526" dx="0.3048" dy="0.762" layer="1" rot="R270"/>
<smd name="2" x="-2.4384" y="1.2446" dx="0.3048" dy="0.762" layer="1" rot="R270"/>
<smd name="3" x="-2.4384" y="0.762" dx="0.3048" dy="0.762" layer="1" rot="R270"/>
<smd name="4" x="-2.4384" y="0.254" dx="0.3048" dy="0.762" layer="1" rot="R270"/>
<smd name="5" x="-2.4384" y="-0.254" dx="0.3048" dy="0.762" layer="1" rot="R270"/>
<smd name="6" x="-2.4384" y="-0.762" dx="0.3048" dy="0.762" layer="1" rot="R270"/>
<smd name="7" x="-2.4384" y="-1.2446" dx="0.3048" dy="0.762" layer="1" rot="R270"/>
<smd name="8" x="-2.4384" y="-1.7526" dx="0.3048" dy="0.762" layer="1" rot="R270"/>
<smd name="9" x="-1.7526" y="-2.4384" dx="0.3048" dy="0.762" layer="1" rot="R180"/>
<smd name="10" x="-1.2446" y="-2.4384" dx="0.3048" dy="0.762" layer="1" rot="R180"/>
<smd name="11" x="-0.762" y="-2.4384" dx="0.3048" dy="0.762" layer="1" rot="R180"/>
<smd name="12" x="-0.254" y="-2.4384" dx="0.3048" dy="0.762" layer="1" rot="R180"/>
<smd name="13" x="0.254" y="-2.4384" dx="0.3048" dy="0.762" layer="1" rot="R180"/>
<smd name="14" x="0.762" y="-2.4384" dx="0.3048" dy="0.762" layer="1" rot="R180"/>
<smd name="15" x="1.2446" y="-2.4384" dx="0.3048" dy="0.762" layer="1" rot="R180"/>
<smd name="16" x="1.7526" y="-2.4384" dx="0.3048" dy="0.762" layer="1" rot="R180"/>
<smd name="17" x="2.4384" y="-1.7526" dx="0.3048" dy="0.762" layer="1" rot="R270"/>
<smd name="18" x="2.4384" y="-1.2446" dx="0.3048" dy="0.762" layer="1" rot="R270"/>
<smd name="19" x="2.4384" y="-0.762" dx="0.3048" dy="0.762" layer="1" rot="R270"/>
<smd name="20" x="2.4384" y="-0.254" dx="0.3048" dy="0.762" layer="1" rot="R270"/>
<smd name="21" x="2.4384" y="0.254" dx="0.3048" dy="0.762" layer="1" rot="R270"/>
<smd name="22" x="2.4384" y="0.762" dx="0.3048" dy="0.762" layer="1" rot="R270"/>
<smd name="23" x="2.4384" y="1.2446" dx="0.3048" dy="0.762" layer="1" rot="R270"/>
<smd name="24" x="2.4384" y="1.7526" dx="0.3048" dy="0.762" layer="1" rot="R270"/>
<smd name="25" x="1.7526" y="2.4384" dx="0.3048" dy="0.762" layer="1" rot="R180"/>
<smd name="26" x="1.2446" y="2.4384" dx="0.3048" dy="0.762" layer="1" rot="R180"/>
<smd name="27" x="0.762" y="2.4384" dx="0.3048" dy="0.762" layer="1" rot="R180"/>
<smd name="28" x="0.254" y="2.4384" dx="0.3048" dy="0.762" layer="1" rot="R180"/>
<smd name="29" x="-0.254" y="2.4384" dx="0.3048" dy="0.762" layer="1" rot="R180"/>
<smd name="30" x="-0.762" y="2.4384" dx="0.3048" dy="0.762" layer="1" rot="R180"/>
<smd name="31" x="-1.2446" y="2.4384" dx="0.3048" dy="0.762" layer="1" rot="R180"/>
<smd name="32" x="-1.7526" y="2.4384" dx="0.3048" dy="0.762" layer="1" rot="R180"/>
<smd name="33" x="0" y="0" dx="3.6068" dy="3.6068" layer="1"/>
<text x="-4.0132" y="1.7526" size="1.27" layer="21" ratio="6" rot="SR0">*</text>
<text x="-4.0132" y="1.7526" size="1.27" layer="51" ratio="6" rot="SR0">*</text>
<text x="-2.8702" y="-0.635" size="1.27" layer="25" ratio="6" rot="SR0">&gt;NAME</text>
<text x="-3.4544" y="-0.635" size="1.27" layer="27" ratio="6" rot="SR0">&gt;VALUE</text>
</package>
</packages>
</library>
<library name="holes">
<packages>
<package name="3,6">
<description>&lt;b&gt;MOUNTING HOLE&lt;/b&gt; 3.6 mm with drill center</description>
<wire x1="-2.159" y1="0" x2="0" y2="-2.159" width="2.4892" layer="51" curve="90" cap="flat"/>
<wire x1="0" y1="2.159" x2="2.159" y2="0" width="2.4892" layer="51" curve="-90" cap="flat"/>
<circle x="0" y="0" radius="3.429" width="0.1524" layer="21"/>
<circle x="0" y="0" radius="0.762" width="0.4572" layer="51"/>
<circle x="0" y="0" radius="3.048" width="2.7686" layer="39"/>
<circle x="0" y="0" radius="3.048" width="2.7686" layer="40"/>
<circle x="0" y="0" radius="3.048" width="2.032" layer="43"/>
<circle x="0" y="0" radius="3.048" width="2.032" layer="41"/>
<circle x="0" y="0" radius="3.048" width="2.032" layer="42"/>
<circle x="0" y="0" radius="1.9" width="0.2032" layer="21"/>
<hole x="0" y="0" drill="3.6"/>
</package>
</packages>
</library>
<library name="rcl">
<packages>
<package name="C1206">
<description>&lt;b&gt;CAPACITOR&lt;/b&gt;</description>
<wire x1="-2.473" y1="0.983" x2="2.473" y2="0.983" width="0.0508" layer="39"/>
<wire x1="2.473" y1="-0.983" x2="-2.473" y2="-0.983" width="0.0508" layer="39"/>
<wire x1="-2.473" y1="-0.983" x2="-2.473" y2="0.983" width="0.0508" layer="39"/>
<wire x1="2.473" y1="0.983" x2="2.473" y2="-0.983" width="0.0508" layer="39"/>
<wire x1="-0.965" y1="0.787" x2="0.965" y2="0.787" width="0.1016" layer="51"/>
<wire x1="-0.965" y1="-0.787" x2="0.965" y2="-0.787" width="0.1016" layer="51"/>
<smd name="1" x="-1.4" y="0" dx="1.6" dy="1.8" layer="1"/>
<smd name="2" x="1.4" y="0" dx="1.6" dy="1.8" layer="1"/>
<text x="-1.27" y="1.27" size="1.27" layer="25">&gt;NAME</text>
<text x="-1.27" y="-2.54" size="1.27" layer="27">&gt;VALUE</text>
<rectangle x1="-1.7018" y1="-0.8509" x2="-0.9517" y2="0.8491" layer="51"/>
<rectangle x1="0.9517" y1="-0.8491" x2="1.7018" y2="0.8509" layer="51"/>
<rectangle x1="-0.1999" y1="-0.4001" x2="0.1999" y2="0.4001" layer="35"/>
</package>
</packages>
</library>
<library name="lm74">
<description>National Semiconductor SPI/Microwire 12-bit temperature sensor</description>
<packages>
<package name="SO08">
<wire x1="2.159" y1="1.9558" x2="-2.159" y2="1.9558" width="0.1524" layer="21"/>
<wire x1="2.159" y1="-1.9558" x2="2.54" y2="-1.5748" width="0.1524" layer="21" curve="90"/>
<wire x1="-2.54" y1="1.5748" x2="-2.159" y2="1.9558" width="0.1524" layer="21" curve="-90"/>
<wire x1="2.159" y1="1.9558" x2="2.54" y2="1.5748" width="0.1524" layer="21" curve="-90"/>
<wire x1="-2.54" y1="-1.5748" x2="-2.159" y2="-1.9558" width="0.1524" layer="21" curve="90"/>
<wire x1="-2.159" y1="-1.9558" x2="2.159" y2="-1.9558" width="0.1524" layer="21"/>
<wire x1="2.54" y1="-1.5748" x2="2.54" y2="1.5748" width="0.1524" layer="21"/>
<wire x1="-2.54" y1="1.5748" x2="-2.54" y2="-1.5748" width="0.1524" layer="21"/>
<wire x1="-2.54" y1="0.508" x2="-2.54" y2="-0.508" width="0.1524" layer="21" curve="-180"/>
<wire x1="-2.54" y1="-1.6002" x2="2.54" y2="-1.6002" width="0.0508" layer="21"/>
<smd name="1" x="-1.905" y="-3.0734" dx="0.6604" dy="2.032" layer="1"/>
<smd name="8" x="-1.905" y="3.0734" dx="0.6604" dy="2.032" layer="1"/>
<smd name="2" x="-0.635" y="-3.0734" dx="0.6604" dy="2.032" layer="1"/>
<smd name="3" x="0.635" y="-3.0734" dx="0.6604" dy="2.032" layer="1"/>
<smd name="7" x="-0.635" y="3.0734" dx="0.6604" dy="2.032" layer="1"/>
<smd name="6" x="0.635" y="3.0734" dx="0.6604" dy="2.032" layer="1"/>
<smd name="4" x="1.905" y="-3.0734" dx="0.6604" dy="2.032" layer="1"/>
<smd name="5" x="1.905" y="3.0734" dx="0.6604" dy="2.032" layer="1"/>
<text x="3.937" y="-2.032" size="1.27" layer="27" ratio="10" rot="R90">&gt;VALUE</text>
<text x="-2.921" y="-1.905" size="1.27" layer="25" ratio="10" rot="R90">&gt;NAME</text>
<rectangle x1="1.651" y1="1.9558" x2="2.159" y2="3.0988" layer="51"/>
<rectangle x1="-2.159" y1="-3.0988" x2="-1.651" y2="-1.9558" layer="51"/>
<rectangle x1="-0.889" y1="-3.0988" x2="-0.381" y2="-1.9558" layer="51"/>
<rectangle x1="0.381" y1="-3.0734" x2="0.889" y2="-1.9304" layer="51"/>
<rectangle x1="1.651" y1="-3.0988" x2="2.159" y2="-1.9558" layer="51"/>
<rectangle x1="0.381" y1="1.9558" x2="0.889" y2="3.0988" layer="51"/>
<rectangle x1="-0.889" y1="1.9558" x2="-0.381" y2="3.0988" layer="51"/>
<rectangle x1="-2.159" y1="1.9558" x2="-1.651" y2="3.0988" layer="51"/>
</package>
</packages>
</library>
</libraries>
<attributes>
</attributes>
<variantdefs>
</variantdefs>
<classes>
<class number="0" name="default" width="0" drill="0">
</class>
</classes>
<designrules name="PCBCart-Standard">
<description language="fr">&lt;b&gt;EAGLE Design Rules for PCBCart (Standard PCB)&lt;/b&gt;
&lt;p&gt;&lt;b&gt;Characteristics:&lt;/b&gt;&lt;/p&gt;
&lt;p&gt;
&lt;ul&gt;
&lt;li&gt;Minimum Trace/Spacing: 8mil (0.2mm)&lt;/li&gt;
&lt;li&gt;Minimum Annular Ring: 12mil (0.3mm)&lt;/li&gt;
&lt;li&gt;Minimum Drill: 0.4mm (16mil)&lt;/li&gt;
&lt;/ul&gt;
&lt;p&gt;&lt;b&gt;Hole Tolerances&lt;/b&gt; (for reference only):&lt;/p&gt;
&lt;ul&gt;
&lt;li&gt;+/- 0.1mm for PTH holes&lt;/li&gt;
&lt;li&gt;+/- 0.075mm for NPTH holes&lt;/li&gt;
&lt;/ul&gt;
&lt;/p&gt;</description>
<param name="layerSetup" value="(1*16)"/>
<param name="mtCopper" value="0.035mm 0.035mm 0.035mm 0.035mm 0.035mm 0.035mm 0.035mm 0.035mm 0.035mm 0.035mm 0.035mm 0.035mm 0.035mm 0.035mm 0.035mm 0.035mm"/>
<param name="mtIsolate" value="1.5mm 0.15mm 0.2mm 0.15mm 0.2mm 0.15mm 0.2mm 0.15mm 0.2mm 0.15mm 0.2mm 0.15mm 0.2mm 0.15mm 0.2mm"/>
<param name="mdWireWire" value="8mil"/>
<param name="mdWirePad" value="8mil"/>
<param name="mdWireVia" value="8mil"/>
<param name="mdPadPad" value="8mil"/>
<param name="mdPadVia" value="8mil"/>
<param name="mdViaVia" value="8mil"/>
<param name="mdSmdPad" value="8mil"/>
<param name="mdSmdVia" value="8mil"/>
<param name="mdSmdSmd" value="8mil"/>
<param name="mdViaViaSameLayer" value="8mil"/>
<param name="mnLayersViaInSmd" value="2"/>
<param name="mdCopperDimension" value="20mil"/>
<param name="mdDrill" value="8mil"/>
<param name="mdSmdStop" value="0mil"/>
<param name="msWidth" value="8mil"/>
<param name="msDrill" value="0.4mm"/>
<param name="msMicroVia" value="999mil"/>
<param name="msBlindViaRatio" value="0.5"/>
<param name="rvPadTop" value="0.25"/>
<param name="rvPadInner" value="0.25"/>
<param name="rvPadBottom" value="0.25"/>
<param name="rvViaOuter" value="0.25"/>
<param name="rvViaInner" value="0.25"/>
<param name="rvMicroViaOuter" value="0.25"/>
<param name="rvMicroViaInner" value="0.25"/>
<param name="rlMinPadTop" value="8mil"/>
<param name="rlMaxPadTop" value="20mil"/>
<param name="rlMinPadInner" value="8mil"/>
<param name="rlMaxPadInner" value="20mil"/>
<param name="rlMinPadBottom" value="8mil"/>
<param name="rlMaxPadBottom" value="20mil"/>
<param name="rlMinViaOuter" value="10mil"/>
<param name="rlMaxViaOuter" value="20mil"/>
<param name="rlMinViaInner" value="10mil"/>
<param name="rlMaxViaInner" value="20mil"/>
<param name="rlMinMicroViaOuter" value="99mil"/>
<param name="rlMaxMicroViaOuter" value="999mil"/>
<param name="rlMinMicroViaInner" value="99mil"/>
<param name="rlMaxMicroViaInner" value="999mil"/>
<param name="psTop" value="-1"/>
<param name="psBottom" value="-1"/>
<param name="psFirst" value="-1"/>
<param name="psElongationLong" value="100"/>
<param name="psElongationOffset" value="100"/>
<param name="mvStopFrame" value="0"/>
<param name="mvCreamFrame" value="0"/>
<param name="mlMinStopFrame" value="3mil"/>
<param name="mlMaxStopFrame" value="8mil"/>
<param name="mlMinCreamFrame" value="0mil"/>
<param name="mlMaxCreamFrame" value="8mil"/>
<param name="mlViaStopLimit" value="0mil"/>
<param name="srRoundness" value="0"/>
<param name="srMinRoundness" value="0mil"/>
<param name="srMaxRoundness" value="0mil"/>
<param name="slThermalIsolate" value="8mil"/>
<param name="slThermalsForVias" value="0"/>
<param name="dpMaxLengthDifference" value="10mm"/>
<param name="dpGapFactor" value="2.5"/>
<param name="checkGrid" value="0"/>
<param name="checkAngle" value="0"/>
<param name="checkFont" value="1"/>
<param name="checkRestrict" value="1"/>
<param name="useDiameter" value="13"/>
<param name="maxErrors" value="50"/>
</designrules>
<autorouter>
<pass name="Default">
<param name="RoutingGrid" value="50mil"/>
<param name="tpViaShape" value="round"/>
<param name="PrefDir.1" value="|"/>
<param name="PrefDir.2" value="0"/>
<param name="PrefDir.3" value="0"/>
<param name="PrefDir.4" value="0"/>
<param name="PrefDir.5" value="0"/>
<param name="PrefDir.6" value="0"/>
<param name="PrefDir.7" value="0"/>
<param name="PrefDir.8" value="0"/>
<param name="PrefDir.9" value="0"/>
<param name="PrefDir.10" value="0"/>
<param name="PrefDir.11" value="0"/>
<param name="PrefDir.12" value="0"/>
<param name="PrefDir.13" value="0"/>
<param name="PrefDir.14" value="0"/>
<param name="PrefDir.15" value="0"/>
<param name="PrefDir.16" value="-"/>
<param name="cfVia" value="8"/>
<param name="cfNonPref" value="5"/>
<param name="cfChangeDir" value="2"/>
<param name="cfOrthStep" value="2"/>
<param name="cfDiagStep" value="3"/>
<param name="cfExtdStep" value="0"/>
<param name="cfBonusStep" value="1"/>
<param name="cfMalusStep" value="1"/>
<param name="cfPadImpact" value="4"/>
<param name="cfSmdImpact" value="4"/>
<param name="cfBusImpact" value="0"/>
<param name="cfHugging" value="3"/>
<param name="cfAvoid" value="4"/>
<param name="cfPolygon" value="10"/>
<param name="cfBase.1" value="0"/>
<param name="cfBase.2" value="1"/>
<param name="cfBase.3" value="1"/>
<param name="cfBase.4" value="1"/>
<param name="cfBase.5" value="1"/>
<param name="cfBase.6" value="1"/>
<param name="cfBase.7" value="1"/>
<param name="cfBase.8" value="1"/>
<param name="cfBase.9" value="1"/>
<param name="cfBase.10" value="1"/>
<param name="cfBase.11" value="1"/>
<param name="cfBase.12" value="1"/>
<param name="cfBase.13" value="1"/>
<param name="cfBase.14" value="1"/>
<param name="cfBase.15" value="1"/>
<param name="cfBase.16" value="0"/>
<param name="mnVias" value="20"/>
<param name="mnSegments" value="9999"/>
<param name="mnExtdSteps" value="9999"/>
<param name="mnRipupLevel" value="10"/>
<param name="mnRipupSteps" value="100"/>
<param name="mnRipupTotal" value="100"/>
</pass>
<pass name="Follow-me" refer="Default" active="yes">
</pass>
<pass name="Busses" refer="Default" active="yes">
<param name="cfNonPref" value="4"/>
<param name="cfBusImpact" value="4"/>
<param name="cfHugging" value="0"/>
<param name="mnVias" value="0"/>
</pass>
<pass name="Route" refer="Default" active="yes">
</pass>
</autorouter>
<elements>
<element name="U5" library="adxl312" package="CP_32_17" value="ADXL312WACPZ" x="16.51" y="10.16" rot="R90"/>
<element name="X3" library="con-subd" package="F09HP" value="" x="16.51" y="22.86"/>
<element name="U$2" library="holes" package="3,6" value="" x="27.94" y="5.08"/>
<element name="U$3" library="holes" package="3,6" value="" x="5.08" y="5.08"/>
<element name="C1" library="rcl" package="C1206" value="100n" x="14.9225" y="4.1275" rot="R180"/>
<element name="C2" library="rcl" package="C1206" value="100n" x="8.255" y="12.3825" rot="R90"/>
<element name="IC1" library="lm74" package="SO08" value="LM74CIM" x="27.305" y="14.605"/>
</elements>
<signals>
<signal name="GND">
<contactref element="U5" pad="3"/>
<contactref element="U5" pad="1"/>
<contactref element="U5" pad="4"/>
<contactref element="U5" pad="33"/>
<contactref element="X3" pad="6"/>
<contactref element="C1" pad="2"/>
<contactref element="C2" pad="2"/>
<wire x1="16.256" y1="7.7216" x2="16.256" y2="9.271" width="0.254" layer="1"/>
<wire x1="16.256" y1="9.271" x2="16.51" y2="9.525" width="0.254" layer="1"/>
<wire x1="14.7574" y1="6.8326" x2="14.7574" y2="7.7216" width="0.254" layer="1"/>
<wire x1="14.9225" y1="6.6675" x2="14.7574" y2="6.8326" width="0.254" layer="1"/>
<wire x1="15.748" y1="6.7945" x2="15.748" y2="7.7216" width="0.254" layer="1"/>
<wire x1="15.748" y1="6.7945" x2="15.875" y2="6.6675" width="0.254" layer="1"/>
<wire x1="16.256" y1="7.0485" x2="16.256" y2="7.7216" width="0.254" layer="1"/>
<wire x1="16.1925" y1="6.985" x2="16.256" y2="7.0485" width="0.254" layer="1"/>
<polygon width="0.254" layer="1" spacing="0.3048" isolate="0.254">
<vertex x="0.635" y="30.48"/>
<vertex x="32.7025" y="30.48"/>
<vertex x="32.7025" y="0.3175"/>
<vertex x="0.635" y="0.3175"/>
</polygon>
<contactref element="IC1" pad="4"/>
<contactref element="IC1" pad="4"/>
</signal>
<signal name="+3V3">
<contactref element="U5" pad="5"/>
<contactref element="U5" pad="31"/>
<contactref element="C1" pad="1"/>
<contactref element="C2" pad="1"/>
<wire x1="16.764" y1="7.7216" x2="16.764" y2="6.9215" width="0.254" layer="1"/>
<contactref element="IC1" pad="8"/>
<contactref element="X3" pad="7"/>
<polygon width="0.4064" layer="16">
<vertex x="0.3175" y="0.3175"/>
<vertex x="32.7025" y="0.3175"/>
<vertex x="32.7025" y="30.48"/>
<vertex x="0.3175" y="30.48"/>
</polygon>
<wire x1="16.764" y1="6.9215" x2="16.764" y2="4.569" width="0.3048" layer="1"/>
<wire x1="16.764" y1="4.569" x2="16.3225" y2="4.1275" width="0.3048" layer="1"/>
<wire x1="8.255" y1="10.9825" x2="9.9725" y2="10.9825" width="0.3048" layer="1"/>
<wire x1="9.9725" y1="10.9825" x2="12.065" y2="8.89" width="0.3048" layer="1"/>
<wire x1="12.065" y1="8.89" x2="14.0462" y2="8.89" width="0.3048" layer="1"/>
<wire x1="14.0462" y1="8.89" x2="14.0716" y2="8.9154" width="0.3048" layer="1"/>
<wire x1="14.0716" y1="8.9154" x2="12.0904" y2="8.9154" width="0.3048" layer="1"/>
<wire x1="12.0904" y1="8.9154" x2="12.065" y2="8.89" width="0.3048" layer="1"/>
<via x="12.065" y="8.89" extent="1-16" drill="0.6" shape="square"/>
<wire x1="12.065" y1="8.89" x2="12.065" y2="7.9375" width="0.3048" layer="16"/>
<wire x1="12.065" y1="7.9375" x2="11.7475" y2="7.62" width="0.3048" layer="16"/>
<wire x1="16.764" y1="7.7216" x2="16.764" y2="6.12775" width="0.3048" layer="1"/>
<wire x1="16.764" y1="6.12775" x2="16.66875" y2="6.0325" width="0.3048" layer="1"/>
<via x="16.66875" y="6.0325" extent="1-16" drill="0.6" shape="square"/>
<wire x1="16.66875" y1="6.0325" x2="15.875" y2="6.0325" width="0.3048" layer="16"/>
<wire x1="25.4" y1="17.6784" x2="25.4" y2="18.0975" width="0.4064" layer="1"/>
<wire x1="25.4" y1="18.0975" x2="24.4475" y2="19.05" width="0.4064" layer="1"/>
<via x="24.4475" y="19.05" extent="1-16" drill="0.6" shape="square"/>
<wire x1="24.4475" y1="19.05" x2="24.4475" y2="19.685" width="0.4064" layer="16"/>
</signal>
<signal name="MISO/DIO">
<contactref element="U5" pad="23"/>
<contactref element="X3" pad="3"/>
<wire x1="16.51" y1="19.685" x2="16.51" y2="21.59" width="0.254" layer="1"/>
<wire x1="15.24" y1="18.415" x2="16.51" y2="19.685" width="0.254" layer="1"/>
<wire x1="15.24" y1="12.6238" x2="15.24" y2="18.415" width="0.254" layer="1"/>
<wire x1="15.2654" y1="12.5984" x2="15.24" y2="12.6238" width="0.254" layer="1"/>
<contactref element="IC1" pad="1"/>
<wire x1="25.4" y1="11.5316" x2="24.3459" y2="11.5316" width="0.3048" layer="1"/>
<wire x1="24.3459" y1="11.5316" x2="22.86" y2="13.0175" width="0.3048" layer="1"/>
<wire x1="22.86" y1="13.0175" x2="22.86" y2="16.8275" width="0.3048" layer="1"/>
<wire x1="22.86" y1="16.8275" x2="22.5425" y2="17.145" width="0.3048" layer="1"/>
<via x="22.5425" y="17.145" extent="1-16" drill="0.6" shape="square"/>
<wire x1="22.5425" y1="17.145" x2="19.05" y2="17.145" width="0.3048" layer="16"/>
<wire x1="19.05" y1="17.145" x2="16.51" y2="19.685" width="0.3048" layer="16"/>
<wire x1="16.51" y1="19.685" x2="16.51" y2="21.59" width="0.3048" layer="16"/>
</signal>
<signal name="CS0">
<contactref element="U5" pad="6"/>
<contactref element="X3" pad="4"/>
<wire x1="19.3675" y1="21.59" x2="19.2532" y2="21.59" width="0.254" layer="1"/>
<wire x1="20.6375" y1="22.86" x2="19.3675" y2="21.59" width="0.254" layer="1"/>
<wire x1="22.5425" y1="22.86" x2="20.6375" y2="22.86" width="0.254" layer="1"/>
<wire x1="23.495" y1="21.9075" x2="22.5425" y2="22.86" width="0.254" layer="1"/>
<wire x1="20.6375" y1="8.5725" x2="20.6375" y2="17.78" width="0.254" layer="1"/>
<wire x1="20.6375" y1="17.78" x2="23.495" y2="20.6375" width="0.254" layer="1"/>
<wire x1="23.495" y1="20.6375" x2="23.495" y2="21.9075" width="0.254" layer="1"/>
<wire x1="18.7325" y1="6.6675" x2="20.6375" y2="8.5725" width="0.254" layer="1"/>
<wire x1="17.78" y1="6.6675" x2="18.7325" y2="6.6675" width="0.254" layer="1"/>
<wire x1="17.4625" y1="6.985" x2="17.78" y2="6.6675" width="0.254" layer="1"/>
<wire x1="17.4625" y1="6.9851" x2="17.4625" y2="6.985" width="0.254" layer="1"/>
<wire x1="17.3038" y1="7.1438" x2="17.4625" y2="6.9851" width="0.254" layer="1"/>
<wire x1="17.3038" y1="7.1438" x2="17.3038" y2="7.6898" width="0.254" layer="1"/>
<wire x1="17.3038" y1="7.6898" x2="17.272" y2="7.7216" width="0.254" layer="1"/>
</signal>
<signal name="MOSI">
<contactref element="U5" pad="24"/>
<contactref element="X3" pad="2"/>
<wire x1="13.7668" y1="13.589" x2="13.7668" y2="21.59" width="0.254" layer="1"/>
<wire x1="14.7574" y1="12.5984" x2="13.7668" y2="13.589" width="0.254" layer="1"/>
</signal>
<signal name="INT_ADXL1">
<contactref element="U5" pad="20"/>
<contactref element="X3" pad="5"/>
<wire x1="21.9964" y1="20.7264" x2="21.9964" y2="21.59" width="0.254" layer="1"/>
<wire x1="16.8275" y1="15.5575" x2="21.9964" y2="20.7264" width="0.254" layer="1"/>
<wire x1="16.8275" y1="12.6619" x2="16.8275" y2="15.5575" width="0.254" layer="1"/>
<wire x1="16.764" y1="12.5984" x2="16.8275" y2="12.6619" width="0.254" layer="1"/>
</signal>
<signal name="INT_ADXL2">
<contactref element="U5" pad="21"/>
<contactref element="X3" pad="9"/>
<wire x1="20.32" y1="24.13" x2="20.6248" y2="24.13" width="0.254" layer="1"/>
<wire x1="19.05" y1="22.86" x2="20.32" y2="24.13" width="0.254" layer="1"/>
<wire x1="18.415" y1="22.86" x2="19.05" y2="22.86" width="0.254" layer="1"/>
<wire x1="17.78" y1="22.225" x2="18.415" y2="22.86" width="0.254" layer="1"/>
<wire x1="17.78" y1="19.05" x2="17.78" y2="22.225" width="0.254" layer="1"/>
<wire x1="16.1925" y1="17.4625" x2="17.78" y2="19.05" width="0.254" layer="1"/>
<wire x1="16.1925" y1="12.6619" x2="16.1925" y2="17.4625" width="0.254" layer="1"/>
<wire x1="16.256" y1="12.5984" x2="16.1925" y2="12.6619" width="0.254" layer="1"/>
</signal>
<signal name="CS1">
<contactref element="IC1" pad="7"/>
<contactref element="X3" pad="8"/>
<wire x1="26.67" y1="17.6784" x2="26.67" y2="18.7325" width="0.3048" layer="1"/>
<wire x1="26.67" y1="18.7325" x2="25.0825" y2="20.32" width="0.3048" layer="1"/>
<wire x1="25.0825" y1="20.32" x2="25.0825" y2="23.8125" width="0.3048" layer="1"/>
<wire x1="25.0825" y1="23.8125" x2="22.5425" y2="26.3525" width="0.3048" layer="1"/>
<wire x1="22.5425" y1="26.3525" x2="19.05" y2="26.3525" width="0.3048" layer="1"/>
<wire x1="19.05" y1="26.3525" x2="18.0975" y2="25.4" width="0.3048" layer="1"/>
<wire x1="18.0975" y1="25.4" x2="18.0975" y2="24.3459" width="0.3048" layer="1"/>
<wire x1="18.0975" y1="24.3459" x2="17.8816" y2="24.13" width="0.3048" layer="1"/>
</signal>
<signal name="SCK">
<contactref element="U5" pad="26"/>
<contactref element="X3" pad="1"/>
<wire x1="11.0236" y1="13.1064" x2="11.0236" y2="21.59" width="0.254" layer="1"/>
<wire x1="12.7" y1="11.43" x2="11.0236" y2="13.1064" width="0.254" layer="1"/>
<wire x1="14.0462" y1="11.43" x2="12.7" y2="11.43" width="0.254" layer="1"/>
<contactref element="IC1" pad="2"/>
<wire x1="26.67" y1="11.5316" x2="26.67" y2="10.4775" width="0.3048" layer="1"/>
<wire x1="26.67" y1="10.4775" x2="26.035" y2="9.8425" width="0.3048" layer="1"/>
<wire x1="26.035" y1="9.8425" x2="24.4475" y2="9.8425" width="0.3048" layer="1"/>
<wire x1="24.4475" y1="9.8425" x2="21.9075" y2="12.3825" width="0.3048" layer="1"/>
<wire x1="21.9075" y1="12.3825" x2="21.9075" y2="15.24" width="0.3048" layer="1"/>
<wire x1="21.9075" y1="15.24" x2="21.59" y2="15.5575" width="0.3048" layer="1"/>
<via x="21.59" y="15.5575" extent="1-16" drill="0.6" shape="square"/>
<wire x1="21.59" y1="15.5575" x2="14.5161" y2="15.5575" width="0.3048" layer="16"/>
<wire x1="14.5161" y1="15.5575" x2="11.0236" y2="19.05" width="0.3048" layer="16"/>
<wire x1="11.0236" y1="19.05" x2="11.0236" y2="21.59" width="0.3048" layer="16"/>
<wire x1="14.0462" y1="11.43" x2="14.0716" y2="11.4046" width="0" layer="19" extent="1-1"/>
</signal>
</signals>
</board>
</drawing>
</eagle>
